 pt 20.000000;40.000000 cop;clr=2.000000;2.000000
  seg convex 0:
   arc cvx use=0 2.000000:3.542728 -> 2.168815 [3.542728 5.711543]
   arc cvx use=1 6.000000:5.711543 -> -2.168815 [3.542728 5.711543] tn=4
 pt 5.000000;60.000000 cop;clr=2.000000;2.000000
 pt 40.000000;60.000000 cop;clr=2.000000;2.000000
 twonet 4
  arc cvx use=1 center=40.000000;60.000000 r=0.000000 a=-2.142438;0.000000
  line 40.000000;60.000000 .. 25.046082;36.753918
  arc cvx use=1 center=20.000000;40.000000 r=6.000000 a=5.711543;-2.168815
  line 14.476290;37.657218 .. 5.000000;60.000000
  arc cvx use=1 center=5.000000;60.000000 r=0.000000 a=-1.169661;0.000000
