 pt 20.000000;40.000000 cop;clr=2.000000;2.000000
  seg convex 0:
   arc cvx use=0 2.000000:3.542728 -> 2.393208 [3.542728 5.935936]
   arc cvx use=1 6.000000:5.935936 -> -2.393208 [3.542728 5.935936] tn=5
 pt 50.000000;50.000000 cop;clr=2.000000;2.000000
 pt 5.000000;60.000000 cop;clr=2.000000;2.000000
 pt 40.000000;60.000000 cop;clr=2.000000;2.000000
  seg convex 0:
   arc cvx use=0 2.000000:0.347249 -> 2.447094 [0.347249 2.794344]
   arc cvx use=1 6.000000:0.347249 -> 2.447094 [0.347249 2.794344] tn=5
 twonet 5
  arc cvx use=1 center=50.000000;50.000000 r=0.000000 a=1.918045;0.000000
  line 50.000000;50.000000 .. 45.641875;62.041875
  arc cvx use=1 center=40.000000;60.000000 r=6.000000 a=0.347249;2.447094
  line 34.358125;62.041875 .. 25.641875;37.958125
  arc cvx use=1 center=20.000000;40.000000 r=6.000000 a=5.935936;-2.393208
  line 14.476290;37.657218 .. 5.000000;60.000000
  arc cvx use=1 center=5.000000;60.000000 r=0.000000 a=-1.169661;0.000000
