 pt 10.000000;10.000000 cop;clr=2.000000;1.000000
 pt 50.000000;50.000000 cop;clr=2.000000;1.000000
  seg convex 0:
   arc cvx use=0 2.000000:0.563416 -> 1.863549 [0.563416 2.426964]
   arc cvx use=1 4.000000:0.563416 -> 1.863549 [0.563416 2.426964] tn=10
   arc cvx use=1 7.000000:1.520618 -> 0.090269 [1.520618 1.610887] tn=6
 pt 80.000000;10.000000 cop;clr=2.000000;1.000000
 pt 0.000000;55.000000 cop;clr=2.000000;1.000000
 pt 90.000000;55.000000 cop;clr=2.000000;1.000000
 twonet 6
  arc cvx use=1 center=90.000000;55.000000 r=0.000000 a=3.091414;0.000000
  line 90.000000;55.000000 .. 50.351101;56.991189
  arc cvx use=1 center=50.000000;50.000000 r=7.000000 a=1.520618;0.090269
  line 49.719438;56.994375 .. 0.000000;55.000000
  arc cvx use=1 center=0.000000;55.000000 r=0.000000 a=0.040091;0.000000
 twonet 10
  arc cvx use=1 center=80.000000;10.000000 r=0.000000 a=2.134212;0.000000
  line 80.000000;10.000000 .. 53.381744;52.136308
  arc cvx use=1 center=50.000000;50.000000 r=4.000000 a=0.563416;1.863549
  line 46.978653;52.621347 .. 10.000000;10.000000
  arc cvx use=1 center=10.000000;10.000000 r=0.000000 a=0.856168;0.000000
