 pt 30.000000;20.000000 cop;clr=2.000000;1.000000
  seg convex 0:
   arc cvx use=0 2.000000:3.425387 -> 2.574004 [3.425387 5.999391]
   arc cvx use=1 4.000000:5.999391 -> -2.574004 [3.425387 5.999391] tn=13
   arc cvx use=1 7.000000:5.923478 -> -2.422179 [3.501300 5.923478] tn=6
 pt 20.000000;40.000000 cop;clr=2.000000;1.000000
 pt 40.000000;40.000000 cop;clr=2.000000;1.000000
 pt 15.000000;40.000000 cop;clr=2.000000;1.000000
 pt 45.000000;40.000000 cop;clr=2.000000;1.000000
 twonet 6
  arc cvx use=1 center=45.000000;40.000000 r=0.000000 a=-1.930503;0.000000
  line 45.000000;40.000000 .. 36.552000;17.536000
  arc cvx use=1 center=30.000000;20.000000 r=7.000000 a=5.923478;-2.422179
  line 23.448000;17.536000 .. 15.000000;40.000000
  arc cvx use=1 center=15.000000;40.000000 r=0.000000 a=-1.211089;0.000000
 twonet 13
  arc cvx use=1 center=40.000000;40.000000 r=0.000000 a=-1.854590;0.000000
  line 40.000000;40.000000 .. 33.840000;18.880000
  arc cvx use=1 center=30.000000;20.000000 r=4.000000 a=5.999391;-2.574004
  line 26.160000;18.880000 .. 20.000000;40.000000
  arc cvx use=1 center=20.000000;40.000000 r=0.000000 a=-1.287002;0.000000
