 pt 2.000000;105.000000 cop;clr=1.500000;1.000000
 pt 10.000000;100.000000 cop;clr=1.500000;1.000000
  seg convex 0:
   arc cvx use=0 1.500000:3.727606 -> 0.984783 [3.727606 4.712389]
   arc cvx use=1 3.900000:4.712389 -> -0.984783 [3.727606 4.712389] tn=7
 pt 30.000000;50.000000 cop;clr=1.500000;1.000000
 pt 60.000000;50.000000 cop;clr=1.500000;1.000000
 pt 90.000000;100.000000 cop;clr=1.500000;1.000000
  seg convex 0:
   arc cvx use=0 1.500000:4.712389 -> 0.819966 [4.712389 5.532355]
   arc cvx use=1 3.900000:5.532355 -> -0.819966 [4.712389 5.532355] tn=7
 pt 100.000000;105.000000 cop;clr=1.500000;1.000000
 twonet 7
  arc cvx use=1 center=100.000000;105.000000 r=0.000000 a=-2.321626;0.000000
  line 100.000000;105.000000 .. 92.851379;97.339241
  arc cvx use=1 center=90.000000;100.000000 r=3.900000 a=5.532355;-0.819966
  line 90.000000;96.100000 .. 10.000000;96.100000
  arc cvx use=1 center=10.000000;100.000000 r=3.900000 a=4.712389;-0.984783
  line 6.750706;97.843130 .. 2.000000;105.000000
  arc cvx use=1 center=2.000000;105.000000 r=0.000000 a=-0.984783;0.000000
