 pt 12.700000;17.145000 cop;clr=0.400000;0.000000
 pt 12.700000;19.685000 cop;clr=0.400000;0.000000
 pt 20.320000;19.685000 cop;clr=0.400000;0.000000
 pt 20.320000;22.225000 cop;clr=0.400000;0.000000
 twonet 5
